{
  "status": "UP",
  "server": {
    "host": "srvmultvlsu01",
    "ip": "107.117.226.41",
    "timestamp": "2019-12-10T18:01:05",
    "javaVendor": "Oracle Corporation",
    "javaVersion": "1.8.0_161",
    "locale": {
      "script": "",
      "displayCountry": "United States",
      "displayVariant": "",
      "unicodeLocaleKeys": [],
      "displayName": "English (United States)",
      "country": "US",
      "unicodeLocaleAttributes": [],
      "displayLanguage": "English",
      "ISO3Language": "eng",
      "variant": "",
      "ISO3Country": "USA",
      "displayScript": "",
      "extensionKeys": [],
      "language": "en"
    },
    "osName": "Windows 10",
    "osVersion": "10.0",
    "osArchitecture": "amd64",
    "serverPort": "localhost:58443",
    "applicationName": "atms-partenon-api-services"
  },
  "backends": [
    {
      "system": "Oracle BBDD",
      "status": "UP"
    },
    {
      "system": "CAM Provider",
      "status": "UP"
    },
    {
      "system": "mainframe",
      "status": "UP"
    }
  ],
  "dependencies": [
    {
      "api": "operative_signature_configurations-systems-api-services-v1",
      "status": "UP"
    },
    {
      "api": "accounts-systems-api-services-v1",
      "status": "DOWN"
    }
  ]
}